<?xml version="1.0" encoding="UTF-8" standalone="no"?>
<!DOCTYPE svg PUBLIC "-//W3C//DTD SVG 1.1//EN"
 "http://www.w3.org/Graphics/SVG/1.1/DTD/svg11.dtd">
<!-- Generated by graphviz version 2.38.0 (20140413.2041)
 -->
<!-- Title: PBRemoteClient Pages: 1 -->
<svg width="643pt" height="479pt"
 viewBox="0.00 0.00 642.71 479.00" xmlns="http://www.w3.org/2000/svg" xmlns:xlink="http://www.w3.org/1999/xlink">
<g id="graph0" class="graph" transform="scale(1 1) rotate(0) translate(4 475)">
<title>PBRemoteClient</title>
<polygon fill="white" stroke="none" points="-4,4 -4,-475 638.712,-475 638.712,4 -4,4"/>
<!-- a -->
<g id="node1" class="node"><title>a</title>
<ellipse fill="black" stroke="black" cx="324.712" cy="-453" rx="18" ry="18"/>
<text text-anchor="middle" x="324.712" y="-449.3" font-family="Times New Roman,serif" font-size="14.00">a</text>
</g>
<!-- idle -->
<g id="node2" class="node"><title>idle</title>
<ellipse fill="none" stroke="black" cx="324.712" cy="-366" rx="30.5947" ry="18"/>
<text text-anchor="middle" x="324.712" y="-362.3" font-family="Times New Roman,serif" font-size="14.00">IDLE</text>
</g>
<!-- a&#45;&gt;idle -->
<g id="edge1" class="edge"><title>a&#45;&gt;idle</title>
<path fill="none" stroke="black" d="M324.712,-434.799C324.712,-423.163 324.712,-407.548 324.712,-394.237"/>
<polygon fill="black" stroke="black" points="328.212,-394.175 324.712,-384.175 321.212,-394.175 328.212,-394.175"/>
<text text-anchor="middle" x="339.712" y="-405.8" font-family="Times New Roman,serif" font-size="14.00"> init()</text>
</g>
<!-- scanning -->
<g id="node3" class="node"><title>scanning</title>
<ellipse fill="none" stroke="black" cx="83.7122" cy="-279" rx="57.6901" ry="18"/>
<text text-anchor="middle" x="83.7122" y="-275.3" font-family="Times New Roman,serif" font-size="14.00">SCANNING</text>
</g>
<!-- idle&#45;&gt;scanning -->
<g id="edge2" class="edge"><title>idle&#45;&gt;scanning</title>
<path fill="none" stroke="black" d="M294.227,-363.936C218.003,-360.964 23.8558,-351.352 4.71222,-330 -8.56126,-315.196 8.9576,-303.111 30.8389,-294.532"/>
<polygon fill="black" stroke="black" points="32.1926,-297.765 40.4066,-291.073 29.8123,-291.182 32.1926,-297.765"/>
<text text-anchor="middle" x="35.7122" y="-318.8" font-family="Times New Roman,serif" font-size="14.00"> Scan Start</text>
</g>
<!-- link_opening -->
<g id="node4" class="node"><title>link_opening</title>
<ellipse fill="none" stroke="black" cx="213.712" cy="-192" rx="76.8869" ry="18"/>
<text text-anchor="middle" x="213.712" y="-188.3" font-family="Times New Roman,serif" font-size="14.00">LINK_OPENING</text>
</g>
<!-- idle&#45;&gt;link_opening -->
<g id="edge7" class="edge"><title>idle&#45;&gt;link_opening</title>
<path fill="none" stroke="black" d="M295.938,-359.59C263.885,-351.859 213.575,-334.239 190.712,-297 176.067,-273.145 186.783,-241.138 197.989,-218.961"/>
<polygon fill="black" stroke="black" points="201.094,-220.575 202.749,-210.11 194.929,-217.26 201.094,-220.575"/>
<text text-anchor="middle" x="222.712" y="-275.3" font-family="Times New Roman,serif" font-size="14.00"> Link Open</text>
</g>
<!-- scanning&#45;&gt;idle -->
<g id="edge3" class="edge"><title>scanning&#45;&gt;idle</title>
<path fill="none" stroke="black" d="M80.9685,-297.039C80.2495,-307.895 81.4249,-321.474 89.7122,-330 115.884,-356.927 223.695,-363.256 283.782,-364.666"/>
<polygon fill="black" stroke="black" points="283.994,-368.171 294.061,-364.87 284.133,-361.172 283.994,-368.171"/>
<text text-anchor="middle" x="126.712" y="-318.8" font-family="Times New Roman,serif" font-size="14.00"> Scan Cancel</text>
</g>
<!-- scanning&#45;&gt;link_opening -->
<g id="edge4" class="edge"><title>scanning&#45;&gt;link_opening</title>
<path fill="none" stroke="black" d="M85.2315,-260.606C87.0488,-249.882 91.0254,-236.585 99.7122,-228 110.524,-217.316 124.51,-209.881 138.961,-204.711"/>
<polygon fill="black" stroke="black" points="140.057,-208.035 148.496,-201.629 137.904,-201.374 140.057,-208.035"/>
<text text-anchor="middle" x="131.712" y="-231.8" font-family="Times New Roman,serif" font-size="14.00"> Link Open</text>
</g>
<!-- link_opening&#45;&gt;idle -->
<g id="edge6" class="edge"><title>link_opening&#45;&gt;idle</title>
<path fill="none" stroke="black" d="M224.699,-210.025C244.378,-240.518 285.715,-304.572 308.604,-340.039"/>
<polygon fill="black" stroke="black" points="305.906,-342.314 314.27,-348.819 311.788,-338.519 305.906,-342.314"/>
<text text-anchor="middle" x="314.212" y="-275.3" font-family="Times New Roman,serif" font-size="14.00"> Link Failed</text>
</g>
<!-- link_established -->
<g id="node5" class="node"><title>link_established</title>
<ellipse fill="none" stroke="black" cx="330.712" cy="-105" rx="96.6831" ry="18"/>
<text text-anchor="middle" x="330.712" y="-101.3" font-family="Times New Roman,serif" font-size="14.00">LINK_ESTABLISHED</text>
</g>
<!-- link_opening&#45;&gt;link_established -->
<g id="edge5" class="edge"><title>link_opening&#45;&gt;link_established</title>
<path fill="none" stroke="black" d="M223.569,-173.93C230.377,-163.336 240.251,-150.061 251.712,-141 259.311,-134.993 268.102,-129.789 277.001,-125.366"/>
<polygon fill="black" stroke="black" points="278.688,-128.441 286.268,-121.038 275.726,-122.098 278.688,-128.441"/>
<text text-anchor="middle" x="296.212" y="-144.8" font-family="Times New Roman,serif" font-size="14.00">Link Confirmed</text>
</g>
<!-- link_established&#45;&gt;idle -->
<g id="edge8" class="edge"><title>link_established&#45;&gt;idle</title>
<path fill="none" stroke="black" d="M335.95,-122.997C345.541,-156.523 363.87,-233.435 351.712,-297 348.944,-311.471 343.142,-326.789 337.623,-339.215"/>
<polygon fill="black" stroke="black" points="334.354,-337.945 333.321,-348.489 340.704,-340.89 334.354,-337.945"/>
<text text-anchor="middle" x="381.212" y="-231.8" font-family="Times New Roman,serif" font-size="14.00"> Timeout</text>
</g>
<!-- link_established&#45;&gt;idle -->
<g id="edge9" class="edge"><title>link_established&#45;&gt;idle</title>
<path fill="none" stroke="black" d="M350.499,-122.931C376.86,-147.657 418.856,-195.852 406.712,-243 395.697,-285.766 384.998,-294.514 358.712,-330 355.372,-334.51 351.483,-339.03 347.554,-343.252"/>
<polygon fill="black" stroke="black" points="345.004,-340.853 340.547,-350.465 350.025,-345.731 345.004,-340.853"/>
<text text-anchor="middle" x="443.712" y="-231.8" font-family="Times New Roman,serif" font-size="14.00"> Link closed</text>
</g>
<!-- wait_for_ack -->
<g id="node6" class="node"><title>wait_for_ack</title>
<ellipse fill="none" stroke="black" cx="464.712" cy="-18" rx="81.7856" ry="18"/>
<text text-anchor="middle" x="464.712" y="-14.3" font-family="Times New Roman,serif" font-size="14.00">WAIT_FOR_ACK</text>
</g>
<!-- link_established&#45;&gt;wait_for_ack -->
<g id="edge10" class="edge"><title>link_established&#45;&gt;wait_for_ack</title>
<path fill="none" stroke="black" d="M257.702,-93.0463C227.948,-85.5003 204.018,-73.2596 220.712,-54 240.46,-31.2173 312.39,-22.911 373.076,-20.0472"/>
<polygon fill="black" stroke="black" points="373.254,-23.5429 383.095,-19.618 372.955,-16.5493 373.254,-23.5429"/>
<text text-anchor="middle" x="253.212" y="-57.8" font-family="Times New Roman,serif" font-size="14.00"> Link Close</text>
</g>
<!-- link_established&#45;&gt;wait_for_ack -->
<g id="edge11" class="edge"><title>link_established&#45;&gt;wait_for_ack</title>
<path fill="none" stroke="black" d="M314.721,-87.0502C306.983,-76.7609 300.889,-63.7729 308.712,-54 318.498,-41.7756 349.96,-33.528 382.091,-28.1263"/>
<polygon fill="black" stroke="black" points="382.735,-31.568 392.061,-26.5401 381.635,-24.6549 382.735,-31.568"/>
<text text-anchor="middle" x="375.712" y="-57.8" font-family="Times New Roman,serif" font-size="14.00"> Remote packet transfer</text>
</g>
<!-- wait_for_ack&#45;&gt;idle -->
<g id="edge13" class="edge"><title>wait_for_ack&#45;&gt;idle</title>
<path fill="none" stroke="black" d="M481.575,-35.9235C495.749,-52.007 513.712,-77.5983 513.712,-104 513.712,-280 513.712,-280 513.712,-280 513.712,-344.389 421.344,-360.292 365.754,-364.033"/>
<polygon fill="black" stroke="black" points="365.285,-360.554 355.499,-364.614 365.681,-367.543 365.285,-360.554"/>
<text text-anchor="middle" x="530.712" y="-188.3" font-family="Times New Roman,serif" font-size="14.00"> ACK</text>
</g>
<!-- wait_for_ack&#45;&gt;idle -->
<g id="edge14" class="edge"><title>wait_for_ack&#45;&gt;idle</title>
<path fill="none" stroke="black" d="M513.114,-32.5794C546.06,-45.1156 583.712,-67.4401 583.712,-104 583.712,-280 583.712,-280 583.712,-280 583.712,-325.558 437.217,-350.667 364.578,-360.317"/>
<polygon fill="black" stroke="black" points="363.892,-356.877 354.423,-361.63 364.789,-363.819 363.892,-356.877"/>
<text text-anchor="middle" x="609.212" y="-188.3" font-family="Times New Roman,serif" font-size="14.00"> Timeout</text>
</g>
<!-- wait_for_ack&#45;&gt;link_established -->
<g id="edge12" class="edge"><title>wait_for_ack&#45;&gt;link_established</title>
<path fill="none" stroke="black" d="M461.08,-35.9922C457.935,-46.8288 452.327,-60.4028 442.712,-69 433.246,-77.4646 421.749,-83.8822 409.771,-88.7478"/>
<polygon fill="black" stroke="black" points="408.258,-85.5757 400.092,-92.3266 410.686,-92.1413 408.258,-85.5757"/>
<text text-anchor="middle" x="469.712" y="-57.8" font-family="Times New Roman,serif" font-size="14.00"> ACK</text>
</g>
</g>
</svg>
