<!DOCTYPE svg PUBLIC "-//W3C//DTD SVG 1.1//EN"
 "http://www.w3.org/Graphics/SVG/1.1/DTD/svg11.dtd">
<svg version="1.1"
 width="900px" height="835px"
 viewBox="0 0 900 835"
 xmlns="http://www.w3.org/2000/svg" shape-rendering="crispEdges"
 stroke-width="1" text-rendering="geometricPrecision">
<polygon fill="white" points="81,7 141,7 141,16 81,16"/>
<text x="112" y="16" textLength="59" font-family="Helvetica" font-size="12" fill="black" text-anchor="middle">

Application
</text>
<polygon fill="white" points="320,7 352,7 352,16 320,16"/>
<text x="337" y="16" textLength="31" font-family="Helvetica" font-size="12" fill="black" text-anchor="middle">

Client
</text>
<polygon fill="white" points="543,7 579,7 579,16 543,16"/>
<text x="562" y="16" textLength="35" font-family="Helvetica" font-size="12" fill="black" text-anchor="middle">

Server
</text>
<polygon fill="white" points="727,7 845,7 845,16 727,16"/>
<text x="787" y="16" textLength="117" font-family="Helvetica" font-size="12" fill="black" text-anchor="middle">

Unprovisioned Device
</text>
<line x1="112" y1="22" x2="112" y2="39" stroke="black"/>
<line x1="337" y1="22" x2="337" y2="39" stroke="black"/>
<line x1="562" y1="22" x2="562" y2="39" stroke="black"/>
<line x1="787" y1="22" x2="787" y2="39" stroke="black"/>
<line x1="112" y1="39" x2="112" y2="67" stroke="black"/>
<line x1="337" y1="39" x2="337" y2="67" stroke="black"/>
<line x1="562" y1="39" x2="562" y2="67" stroke="black"/>
<line x1="787" y1="39" x2="787" y2="67" stroke="black"/>
<polygon fill="white" points="8,39 880,39 880,61 8,61"/>
<polygon fill="white" points="8,51 892,51 892,61 8,61"/>
<polygon fill="white" points="880,39 892,51 880,51"/>
<line x1="8" y1="39" x2="880" y2="39" stroke="black"/>
<line x1="8" y1="61" x2="892" y2="61" stroke="black"/>
<line x1="8" y1="39" x2="8" y2="61" stroke="black"/>
<line x1="892" y1="51" x2="892" y2="61" stroke="black"/>
<line x1="880" y1="39" x2="892" y2="51" stroke="black"/>
<line x1="880" y1="39" x2="880" y2="51" stroke="black"/>
<line x1="892" y1="51" x2="880" y2="51" stroke="black"/>
<polygon fill="white" points="361,46 538,46 538,55 361,55"/>
<text x="362" y="55" textLength="175" font-family="Helvetica" font-size="12" fill="black">
 UUID present in Server's SlotID 
</text>
<line x1="112" y1="67" x2="112" y2="84" stroke="black"/>
<line x1="337" y1="67" x2="337" y2="84" stroke="black"/>
<line x1="562" y1="67" x2="562" y2="84" stroke="black"/>
<line x1="787" y1="67" x2="787" y2="84" stroke="black"/>
<line x1="112" y1="84" x2="112" y2="112" stroke="black"/>
<line x1="337" y1="84" x2="337" y2="112" stroke="black"/>
<line x1="562" y1="84" x2="562" y2="112" stroke="black"/>
<line x1="787" y1="84" x2="787" y2="112" stroke="black"/>
<line x1="112" y1="95" x2="337" y2="95" stroke="black"/>
<polygon fill="black" points="337,95 327,101 327,89"/>
<polygon fill="white" points="124,85 325,85 325,94 124,94"/>
<text x="125" y="94" textLength="199" font-family="Helvetica" font-size="12" fill="black">
pb_remote_client_remote_provision()
</text>
<line x1="112" y1="112" x2="112" y2="140" stroke="black"/>
<line x1="337" y1="112" x2="337" y2="140" stroke="black"/>
<line x1="562" y1="112" x2="562" y2="140" stroke="black"/>
<line x1="787" y1="112" x2="787" y2="140" stroke="black"/>
<line x1="337" y1="123" x2="112" y2="123" stroke="black" stroke-dasharray="2,2"/>
<polygon fill="black" points="112,123 122,129 122,117"/>
<polygon fill="white" points="179,113 270,113 270,122 179,122"/>
<text x="180" y="122" textLength="89" font-family="Helvetica" font-size="12" fill="black">
NRF_SUCCESS
</text>
<line x1="112" y1="140" x2="112" y2="168" stroke="black"/>
<line x1="337" y1="140" x2="337" y2="168" stroke="black"/>
<line x1="562" y1="140" x2="562" y2="168" stroke="black"/>
<line x1="787" y1="140" x2="787" y2="168" stroke="black"/>
<line x1="337" y1="151" x2="562" y2="151" stroke="black"/>
<line x1="562" y1="151" x2="552" y2="157" stroke="black"/>
<polygon fill="white" points="403,141 496,141 496,150 403,150"/>
<text x="404" y="150" textLength="91" font-family="Helvetica" font-size="12" fill="black">
Link open: SlotID
</text>
<line x1="112" y1="168" x2="112" y2="196" stroke="black"/>
<line x1="337" y1="168" x2="337" y2="196" stroke="black"/>
<line x1="562" y1="168" x2="562" y2="196" stroke="black"/>
<line x1="787" y1="168" x2="787" y2="196" stroke="black"/>
<polygon fill="white" points="239,168 436,168 436,190 239,190"/>
<polygon fill="white" points="233,174 442,174 442,184 233,184"/>
<circle fill="white" cx="239" cy="174" r="6"/>
<circle fill="white" cx="436" cy="174" r="6"/>
<circle fill="white" cx="239" cy="184" r="6"/>
<circle fill="white" cx="436" cy="184" r="6"/>
<line x1="239" y1="168" x2="436" y2="168" stroke="black"/>
<line x1="239" y1="190" x2="436" y2="190" stroke="black"/>
<line x1="233" y1="174" x2="233" y2="184" stroke="black"/>
<line x1="442" y1="174" x2="442" y2="184" stroke="black"/>
<path d="M 233 174 A6,6 0 0,1 239,168" stroke="black" fill="none"/><path d="M 436 168 A6,6 0 0,1 442,174" stroke="black" fill="none"/><path d="M 442 184 A6,6 0 0,1 436,190" stroke="black" fill="none"/><path d="M 239 190 A6,6 0 0,1 233,184" stroke="black" fill="none"/><polygon fill="white" points="289,175 384,175 384,184 289,184"/>
<text x="290" y="184" textLength="93" font-family="Helvetica" font-size="12" fill="black">
WAIT_FOR_ACK
</text>
<polygon fill="white" points="464,168 661,168 661,190 464,190"/>
<polygon fill="white" points="458,174 667,174 667,184 458,184"/>
<circle fill="white" cx="464" cy="174" r="6"/>
<circle fill="white" cx="661" cy="174" r="6"/>
<circle fill="white" cx="464" cy="184" r="6"/>
<circle fill="white" cx="661" cy="184" r="6"/>
<line x1="464" y1="168" x2="661" y2="168" stroke="black"/>
<line x1="464" y1="190" x2="661" y2="190" stroke="black"/>
<line x1="458" y1="174" x2="458" y2="184" stroke="black"/>
<line x1="667" y1="174" x2="667" y2="184" stroke="black"/>
<path d="M 458 174 A6,6 0 0,1 464,168" stroke="black" fill="none"/><path d="M 661 168 A6,6 0 0,1 667,174" stroke="black" fill="none"/><path d="M 667 184 A6,6 0 0,1 661,190" stroke="black" fill="none"/><path d="M 464 190 A6,6 0 0,1 458,184" stroke="black" fill="none"/><polygon fill="white" points="516,175 607,175 607,184 516,184"/>
<text x="517" y="184" textLength="89" font-family="Helvetica" font-size="12" fill="black">
LINK_OPENING
</text>
<line x1="112" y1="196" x2="112" y2="224" stroke="black"/>
<line x1="337" y1="196" x2="337" y2="224" stroke="black"/>
<line x1="562" y1="196" x2="562" y2="224" stroke="black"/>
<line x1="787" y1="196" x2="787" y2="224" stroke="black"/>
<line x1="562" y1="207" x2="337" y2="207" stroke="black"/>
<line x1="337" y1="207" x2="347" y2="213" stroke="black"/>
<polygon fill="white" points="394,197 505,197 505,206 394,206"/>
<text x="395" y="206" textLength="109" font-family="Helvetica" font-size="12" fill="black">
Link status: Opening
</text>
<line x1="112" y1="224" x2="112" y2="252" stroke="black"/>
<line x1="337" y1="224" x2="337" y2="252" stroke="black"/>
<line x1="562" y1="224" x2="562" y2="252" stroke="black"/>
<line x1="787" y1="224" x2="787" y2="252" stroke="black"/>
<polygon fill="white" points="239,224 436,224 436,246 239,246"/>
<polygon fill="white" points="233,230 442,230 442,240 233,240"/>
<circle fill="white" cx="239" cy="230" r="6"/>
<circle fill="white" cx="436" cy="230" r="6"/>
<circle fill="white" cx="239" cy="240" r="6"/>
<circle fill="white" cx="436" cy="240" r="6"/>
<line x1="239" y1="224" x2="436" y2="224" stroke="black"/>
<line x1="239" y1="246" x2="436" y2="246" stroke="black"/>
<line x1="233" y1="230" x2="233" y2="240" stroke="black"/>
<line x1="442" y1="230" x2="442" y2="240" stroke="black"/>
<path d="M 233 230 A6,6 0 0,1 239,224" stroke="black" fill="none"/><path d="M 436 224 A6,6 0 0,1 442,230" stroke="black" fill="none"/><path d="M 442 240 A6,6 0 0,1 436,246" stroke="black" fill="none"/><path d="M 239 246 A6,6 0 0,1 233,240" stroke="black" fill="none"/><polygon fill="white" points="322,231 351,231 351,240 322,240"/>
<text x="323" y="240" textLength="27" font-family="Helvetica" font-size="12" fill="black">
IDLE
</text>
<line x1="112" y1="252" x2="112" y2="280" stroke="black"/>
<line x1="337" y1="252" x2="337" y2="280" stroke="black"/>
<line x1="562" y1="252" x2="562" y2="280" stroke="black"/>
<line x1="787" y1="252" x2="787" y2="280" stroke="black"/>
<line x1="562" y1="263" x2="787" y2="263" stroke="black"/>
<line x1="787" y1="263" x2="777" y2="269" stroke="black"/>
<polygon fill="white" points="647,253 701,253 701,262 647,262"/>
<text x="648" y="262" textLength="52" font-family="Helvetica" font-size="12" fill="black">
Link open
</text>
<line x1="112" y1="280" x2="112" y2="308" stroke="black"/>
<line x1="337" y1="280" x2="337" y2="308" stroke="black"/>
<line x1="562" y1="280" x2="562" y2="308" stroke="black"/>
<line x1="787" y1="280" x2="787" y2="308" stroke="black"/>
<line x1="787" y1="291" x2="562" y2="291" stroke="black"/>
<line x1="562" y1="291" x2="572" y2="297" stroke="black"/>
<polygon fill="white" points="641,281 708,281 708,290 641,290"/>
<text x="642" y="290" textLength="65" font-family="Helvetica" font-size="12" fill="black">
Link confirm
</text>
<line x1="112" y1="308" x2="112" y2="336" stroke="black"/>
<line x1="337" y1="308" x2="337" y2="336" stroke="black"/>
<line x1="562" y1="308" x2="562" y2="336" stroke="black"/>
<line x1="787" y1="308" x2="787" y2="336" stroke="black"/>
<line x1="562" y1="319" x2="337" y2="319" stroke="black"/>
<line x1="337" y1="319" x2="347" y2="325" stroke="black"/>
<polygon fill="white" points="395,309 503,309 503,318 395,318"/>
<text x="396" y="318" textLength="106" font-family="Helvetica" font-size="12" fill="black">
Link report: Opened
</text>
<line x1="112" y1="336" x2="112" y2="364" stroke="black"/>
<line x1="337" y1="336" x2="337" y2="364" stroke="black"/>
<line x1="562" y1="336" x2="562" y2="364" stroke="black"/>
<line x1="787" y1="336" x2="787" y2="364" stroke="black"/>
<polygon fill="white" points="464,336 661,336 661,358 464,358"/>
<polygon fill="white" points="458,342 667,342 667,352 458,352"/>
<circle fill="white" cx="464" cy="342" r="6"/>
<circle fill="white" cx="661" cy="342" r="6"/>
<circle fill="white" cx="464" cy="352" r="6"/>
<circle fill="white" cx="661" cy="352" r="6"/>
<line x1="464" y1="336" x2="661" y2="336" stroke="black"/>
<line x1="464" y1="358" x2="661" y2="358" stroke="black"/>
<line x1="458" y1="342" x2="458" y2="352" stroke="black"/>
<line x1="667" y1="342" x2="667" y2="352" stroke="black"/>
<path d="M 458 342 A6,6 0 0,1 464,336" stroke="black" fill="none"/><path d="M 661 336 A6,6 0 0,1 667,342" stroke="black" fill="none"/><path d="M 667 352 A6,6 0 0,1 661,358" stroke="black" fill="none"/><path d="M 464 358 A6,6 0 0,1 458,352" stroke="black" fill="none"/><polygon fill="white" points="485,343 638,343 638,352 485,352"/>
<text x="486" y="352" textLength="151" font-family="Helvetica" font-size="12" fill="black">
WAIT_FOR_REMOTE_ACK
</text>
<line x1="112" y1="364" x2="112" y2="392" stroke="black"/>
<line x1="337" y1="364" x2="337" y2="392" stroke="black"/>
<line x1="562" y1="364" x2="562" y2="392" stroke="black"/>
<line x1="787" y1="364" x2="787" y2="392" stroke="black"/>
<line x1="337" y1="375" x2="562" y2="375" stroke="black"/>
<line x1="562" y1="375" x2="552" y2="381" stroke="black"/>
<polygon fill="white" points="391,365 507,365 507,374 391,374"/>
<text x="392" y="374" textLength="114" font-family="Helvetica" font-size="12" fill="black">
Link status: Accepted
</text>
<line x1="112" y1="392" x2="112" y2="420" stroke="black"/>
<line x1="337" y1="392" x2="337" y2="420" stroke="black"/>
<line x1="562" y1="392" x2="562" y2="420" stroke="black"/>
<line x1="787" y1="392" x2="787" y2="420" stroke="black"/>
<polygon fill="white" points="239,392 436,392 436,414 239,414"/>
<polygon fill="white" points="233,398 442,398 442,408 233,408"/>
<circle fill="white" cx="239" cy="398" r="6"/>
<circle fill="white" cx="436" cy="398" r="6"/>
<circle fill="white" cx="239" cy="408" r="6"/>
<circle fill="white" cx="436" cy="408" r="6"/>
<line x1="239" y1="392" x2="436" y2="392" stroke="black"/>
<line x1="239" y1="414" x2="436" y2="414" stroke="black"/>
<line x1="233" y1="398" x2="233" y2="408" stroke="black"/>
<line x1="442" y1="398" x2="442" y2="408" stroke="black"/>
<path d="M 233 398 A6,6 0 0,1 239,392" stroke="black" fill="none"/><path d="M 436 392 A6,6 0 0,1 442,398" stroke="black" fill="none"/><path d="M 442 408 A6,6 0 0,1 436,414" stroke="black" fill="none"/><path d="M 239 414 A6,6 0 0,1 233,408" stroke="black" fill="none"/><polygon fill="white" points="277,399 395,399 395,408 277,408"/>
<text x="278" y="408" textLength="116" font-family="Helvetica" font-size="12" fill="black">
LINK_ESTABLISHED
</text>
<polygon fill="white" points="464,392 661,392 661,414 464,414"/>
<polygon fill="white" points="458,398 667,398 667,408 458,408"/>
<circle fill="white" cx="464" cy="398" r="6"/>
<circle fill="white" cx="661" cy="398" r="6"/>
<circle fill="white" cx="464" cy="408" r="6"/>
<circle fill="white" cx="661" cy="408" r="6"/>
<line x1="464" y1="392" x2="661" y2="392" stroke="black"/>
<line x1="464" y1="414" x2="661" y2="414" stroke="black"/>
<line x1="458" y1="398" x2="458" y2="408" stroke="black"/>
<line x1="667" y1="398" x2="667" y2="408" stroke="black"/>
<path d="M 458 398 A6,6 0 0,1 464,392" stroke="black" fill="none"/><path d="M 661 392 A6,6 0 0,1 667,398" stroke="black" fill="none"/><path d="M 667 408 A6,6 0 0,1 661,414" stroke="black" fill="none"/><path d="M 464 414 A6,6 0 0,1 458,408" stroke="black" fill="none"/><polygon fill="white" points="502,399 620,399 620,408 502,408"/>
<text x="503" y="408" textLength="116" font-family="Helvetica" font-size="12" fill="black">
LINK_ESTABLISHED
</text>
<line x1="112" y1="420" x2="112" y2="437" stroke="black"/>
<line x1="337" y1="420" x2="337" y2="437" stroke="black"/>
<line x1="562" y1="420" x2="562" y2="437" stroke="black"/>
<line x1="787" y1="420" x2="787" y2="437" stroke="black"/>
<line x1="112" y1="437" x2="112" y2="465" stroke="black"/>
<line x1="337" y1="437" x2="337" y2="465" stroke="black"/>
<line x1="562" y1="437" x2="562" y2="465" stroke="black"/>
<line x1="787" y1="437" x2="787" y2="465" stroke="black"/>
<polygon fill="white" points="8,437 892,437 892,459 8,459"/>
<line x1="8" y1="437" x2="892" y2="437" stroke="black"/>
<line x1="8" y1="459" x2="892" y2="459" stroke="black"/>
<line x1="8" y1="437" x2="8" y2="459" stroke="black"/>
<line x1="892" y1="437" x2="892" y2="459" stroke="black"/>
<polygon fill="white" points="396,444 502,444 502,453 396,453"/>
<text x="397" y="453" textLength="104" font-family="Helvetica" font-size="12" fill="black">
Link open times out
</text>
<line x1="112" y1="465" x2="112" y2="482" stroke="black"/>
<line x1="337" y1="465" x2="337" y2="482" stroke="black"/>
<line x1="562" y1="465" x2="562" y2="482" stroke="black"/>
<line x1="787" y1="465" x2="787" y2="482" stroke="black"/>
<line x1="112" y1="482" x2="112" y2="510" stroke="black"/>
<line x1="337" y1="482" x2="337" y2="510" stroke="black"/>
<line x1="562" y1="482" x2="562" y2="510" stroke="black"/>
<line x1="787" y1="482" x2="787" y2="510" stroke="black"/>
<line x1="112" y1="493" x2="337" y2="493" stroke="black"/>
<polygon fill="black" points="337,493 327,499 327,487"/>
<polygon fill="white" points="124,483 325,483 325,492 124,492"/>
<text x="125" y="492" textLength="199" font-family="Helvetica" font-size="12" fill="black">
pb_remote_client_remote_provision()
</text>
<line x1="112" y1="510" x2="112" y2="538" stroke="black"/>
<line x1="337" y1="510" x2="337" y2="538" stroke="black"/>
<line x1="562" y1="510" x2="562" y2="538" stroke="black"/>
<line x1="787" y1="510" x2="787" y2="538" stroke="black"/>
<line x1="337" y1="521" x2="112" y2="521" stroke="black" stroke-dasharray="2,2"/>
<polygon fill="black" points="112,521 122,527 122,515"/>
<polygon fill="white" points="179,511 270,511 270,520 179,520"/>
<text x="180" y="520" textLength="89" font-family="Helvetica" font-size="12" fill="black">
NRF_SUCCESS
</text>
<line x1="112" y1="538" x2="112" y2="566" stroke="black"/>
<line x1="337" y1="538" x2="337" y2="566" stroke="black"/>
<line x1="562" y1="538" x2="562" y2="566" stroke="black"/>
<line x1="787" y1="538" x2="787" y2="566" stroke="black"/>
<line x1="337" y1="549" x2="562" y2="549" stroke="black"/>
<line x1="562" y1="549" x2="552" y2="555" stroke="black"/>
<polygon fill="white" points="403,539 496,539 496,548 403,548"/>
<text x="404" y="548" textLength="91" font-family="Helvetica" font-size="12" fill="black">
Link open: SlotID
</text>
<line x1="112" y1="566" x2="112" y2="594" stroke="black"/>
<line x1="337" y1="566" x2="337" y2="594" stroke="black"/>
<line x1="562" y1="566" x2="562" y2="594" stroke="black"/>
<line x1="787" y1="566" x2="787" y2="594" stroke="black"/>
<polygon fill="white" points="239,566 436,566 436,588 239,588"/>
<polygon fill="white" points="233,572 442,572 442,582 233,582"/>
<circle fill="white" cx="239" cy="572" r="6"/>
<circle fill="white" cx="436" cy="572" r="6"/>
<circle fill="white" cx="239" cy="582" r="6"/>
<circle fill="white" cx="436" cy="582" r="6"/>
<line x1="239" y1="566" x2="436" y2="566" stroke="black"/>
<line x1="239" y1="588" x2="436" y2="588" stroke="black"/>
<line x1="233" y1="572" x2="233" y2="582" stroke="black"/>
<line x1="442" y1="572" x2="442" y2="582" stroke="black"/>
<path d="M 233 572 A6,6 0 0,1 239,566" stroke="black" fill="none"/><path d="M 436 566 A6,6 0 0,1 442,572" stroke="black" fill="none"/><path d="M 442 582 A6,6 0 0,1 436,588" stroke="black" fill="none"/><path d="M 239 588 A6,6 0 0,1 233,582" stroke="black" fill="none"/><polygon fill="white" points="289,573 384,573 384,582 289,582"/>
<text x="290" y="582" textLength="93" font-family="Helvetica" font-size="12" fill="black">
WAIT_FOR_ACK
</text>
<polygon fill="white" points="464,566 661,566 661,588 464,588"/>
<polygon fill="white" points="458,572 667,572 667,582 458,582"/>
<circle fill="white" cx="464" cy="572" r="6"/>
<circle fill="white" cx="661" cy="572" r="6"/>
<circle fill="white" cx="464" cy="582" r="6"/>
<circle fill="white" cx="661" cy="582" r="6"/>
<line x1="464" y1="566" x2="661" y2="566" stroke="black"/>
<line x1="464" y1="588" x2="661" y2="588" stroke="black"/>
<line x1="458" y1="572" x2="458" y2="582" stroke="black"/>
<line x1="667" y1="572" x2="667" y2="582" stroke="black"/>
<path d="M 458 572 A6,6 0 0,1 464,566" stroke="black" fill="none"/><path d="M 661 566 A6,6 0 0,1 667,572" stroke="black" fill="none"/><path d="M 667 582 A6,6 0 0,1 661,588" stroke="black" fill="none"/><path d="M 464 588 A6,6 0 0,1 458,582" stroke="black" fill="none"/><polygon fill="white" points="516,573 607,573 607,582 516,582"/>
<text x="517" y="582" textLength="89" font-family="Helvetica" font-size="12" fill="black">
LINK_OPENING
</text>
<line x1="112" y1="594" x2="112" y2="622" stroke="black"/>
<line x1="337" y1="594" x2="337" y2="622" stroke="black"/>
<line x1="562" y1="594" x2="562" y2="622" stroke="black"/>
<line x1="787" y1="594" x2="787" y2="622" stroke="black"/>
<line x1="562" y1="605" x2="337" y2="605" stroke="black"/>
<line x1="337" y1="605" x2="347" y2="611" stroke="black"/>
<polygon fill="white" points="394,595 505,595 505,604 394,604"/>
<text x="395" y="604" textLength="109" font-family="Helvetica" font-size="12" fill="black">
Link status: Opening
</text>
<line x1="112" y1="622" x2="112" y2="650" stroke="black"/>
<line x1="337" y1="622" x2="337" y2="650" stroke="black"/>
<line x1="562" y1="622" x2="562" y2="650" stroke="black"/>
<line x1="787" y1="622" x2="787" y2="650" stroke="black"/>
<polygon fill="white" points="239,622 436,622 436,644 239,644"/>
<polygon fill="white" points="233,628 442,628 442,638 233,638"/>
<circle fill="white" cx="239" cy="628" r="6"/>
<circle fill="white" cx="436" cy="628" r="6"/>
<circle fill="white" cx="239" cy="638" r="6"/>
<circle fill="white" cx="436" cy="638" r="6"/>
<line x1="239" y1="622" x2="436" y2="622" stroke="black"/>
<line x1="239" y1="644" x2="436" y2="644" stroke="black"/>
<line x1="233" y1="628" x2="233" y2="638" stroke="black"/>
<line x1="442" y1="628" x2="442" y2="638" stroke="black"/>
<path d="M 233 628 A6,6 0 0,1 239,622" stroke="black" fill="none"/><path d="M 436 622 A6,6 0 0,1 442,628" stroke="black" fill="none"/><path d="M 442 638 A6,6 0 0,1 436,644" stroke="black" fill="none"/><path d="M 239 644 A6,6 0 0,1 233,638" stroke="black" fill="none"/><polygon fill="white" points="322,629 351,629 351,638 322,638"/>
<text x="323" y="638" textLength="27" font-family="Helvetica" font-size="12" fill="black">
IDLE
</text>
<line x1="112" y1="650" x2="112" y2="678" stroke="black"/>
<line x1="337" y1="650" x2="337" y2="678" stroke="black"/>
<line x1="562" y1="650" x2="562" y2="678" stroke="black"/>
<line x1="787" y1="650" x2="787" y2="678" stroke="black"/>
<line x1="562" y1="661" x2="787" y2="661" stroke="black"/>
<line x1="787" y1="661" x2="777" y2="667" stroke="black"/>
<polygon fill="white" points="647,651 701,651 701,660 647,660"/>
<text x="648" y="660" textLength="52" font-family="Helvetica" font-size="12" fill="black">
Link open
</text>
<line x1="112" y1="678" x2="112" y2="695" stroke="black" stroke-dasharray="2,2"/>
<line x1="337" y1="678" x2="337" y2="695" stroke="black" stroke-dasharray="2,2"/>
<line x1="562" y1="678" x2="562" y2="695" stroke="black" stroke-dasharray="2,2"/>
<line x1="787" y1="678" x2="787" y2="695" stroke="black" stroke-dasharray="2,2"/>
<line x1="112" y1="695" x2="112" y2="723" stroke="black"/>
<line x1="337" y1="695" x2="337" y2="723" stroke="black"/>
<line x1="562" y1="695" x2="562" y2="723" stroke="black"/>
<line x1="787" y1="695" x2="787" y2="723" stroke="black"/>
<path d="M 562 700 A112,6 0 0,1 562,712" stroke="black" fill="none"/><line x1="562" y1="712" x2="572" y2="718" stroke="black"/>
<line x1="562" y1="712" x2="572" y2="706" stroke="black"/>
<polygon fill="white" points="511,696 560,696 560,705 511,705"/>
<text x="512" y="705" textLength="47" font-family="Helvetica" font-size="12" fill="black">
timeout()
</text>
<line x1="112" y1="723" x2="112" y2="751" stroke="black"/>
<line x1="337" y1="723" x2="337" y2="751" stroke="black"/>
<line x1="562" y1="723" x2="562" y2="751" stroke="black"/>
<line x1="787" y1="723" x2="787" y2="751" stroke="black"/>
<line x1="562" y1="734" x2="337" y2="734" stroke="black"/>
<line x1="337" y1="734" x2="347" y2="740" stroke="black"/>
<polygon fill="white" points="342,724 557,724 557,733 342,733"/>
<text x="343" y="733" textLength="213" font-family="Helvetica" font-size="12" fill="black">
Link report: Link closed, reason: timeout
</text>
<line x1="112" y1="751" x2="112" y2="779" stroke="black"/>
<line x1="337" y1="751" x2="337" y2="779" stroke="black"/>
<line x1="562" y1="751" x2="562" y2="779" stroke="black"/>
<line x1="787" y1="751" x2="787" y2="779" stroke="black"/>
<polygon fill="white" points="464,751 661,751 661,773 464,773"/>
<polygon fill="white" points="458,757 667,757 667,767 458,767"/>
<circle fill="white" cx="464" cy="757" r="6"/>
<circle fill="white" cx="661" cy="757" r="6"/>
<circle fill="white" cx="464" cy="767" r="6"/>
<circle fill="white" cx="661" cy="767" r="6"/>
<line x1="464" y1="751" x2="661" y2="751" stroke="black"/>
<line x1="464" y1="773" x2="661" y2="773" stroke="black"/>
<line x1="458" y1="757" x2="458" y2="767" stroke="black"/>
<line x1="667" y1="757" x2="667" y2="767" stroke="black"/>
<path d="M 458 757 A6,6 0 0,1 464,751" stroke="black" fill="none"/><path d="M 661 751 A6,6 0 0,1 667,757" stroke="black" fill="none"/><path d="M 667 767 A6,6 0 0,1 661,773" stroke="black" fill="none"/><path d="M 464 773 A6,6 0 0,1 458,767" stroke="black" fill="none"/><polygon fill="white" points="485,758 638,758 638,767 485,767"/>
<text x="486" y="767" textLength="151" font-family="Helvetica" font-size="12" fill="black">
WAIT_FOR_REMOTE_ACK
</text>
<line x1="112" y1="779" x2="112" y2="807" stroke="black"/>
<line x1="337" y1="779" x2="337" y2="807" stroke="black"/>
<line x1="562" y1="779" x2="562" y2="807" stroke="black"/>
<line x1="787" y1="779" x2="787" y2="807" stroke="black"/>
<line x1="337" y1="790" x2="562" y2="790" stroke="black"/>
<line x1="562" y1="790" x2="552" y2="796" stroke="black"/>
<polygon fill="white" points="391,780 507,780 507,789 391,789"/>
<text x="392" y="789" textLength="114" font-family="Helvetica" font-size="12" fill="black">
Link status: Accepted
</text>
<line x1="112" y1="807" x2="112" y2="835" stroke="black"/>
<line x1="337" y1="807" x2="337" y2="835" stroke="black"/>
<line x1="562" y1="807" x2="562" y2="835" stroke="black"/>
<line x1="787" y1="807" x2="787" y2="835" stroke="black"/>
<polygon fill="white" points="239,807 436,807 436,829 239,829"/>
<polygon fill="white" points="233,813 442,813 442,823 233,823"/>
<circle fill="white" cx="239" cy="813" r="6"/>
<circle fill="white" cx="436" cy="813" r="6"/>
<circle fill="white" cx="239" cy="823" r="6"/>
<circle fill="white" cx="436" cy="823" r="6"/>
<line x1="239" y1="807" x2="436" y2="807" stroke="black"/>
<line x1="239" y1="829" x2="436" y2="829" stroke="black"/>
<line x1="233" y1="813" x2="233" y2="823" stroke="black"/>
<line x1="442" y1="813" x2="442" y2="823" stroke="black"/>
<path d="M 233 813 A6,6 0 0,1 239,807" stroke="black" fill="none"/><path d="M 436 807 A6,6 0 0,1 442,813" stroke="black" fill="none"/><path d="M 442 823 A6,6 0 0,1 436,829" stroke="black" fill="none"/><path d="M 239 829 A6,6 0 0,1 233,823" stroke="black" fill="none"/><polygon fill="white" points="322,814 351,814 351,823 322,823"/>
<text x="323" y="823" textLength="27" font-family="Helvetica" font-size="12" fill="black">
IDLE
</text>
<polygon fill="white" points="464,807 661,807 661,829 464,829"/>
<polygon fill="white" points="458,813 667,813 667,823 458,823"/>
<circle fill="white" cx="464" cy="813" r="6"/>
<circle fill="white" cx="661" cy="813" r="6"/>
<circle fill="white" cx="464" cy="823" r="6"/>
<circle fill="white" cx="661" cy="823" r="6"/>
<line x1="464" y1="807" x2="661" y2="807" stroke="black"/>
<line x1="464" y1="829" x2="661" y2="829" stroke="black"/>
<line x1="458" y1="813" x2="458" y2="823" stroke="black"/>
<line x1="667" y1="813" x2="667" y2="823" stroke="black"/>
<path d="M 458 813 A6,6 0 0,1 464,807" stroke="black" fill="none"/><path d="M 661 807 A6,6 0 0,1 667,813" stroke="black" fill="none"/><path d="M 667 823 A6,6 0 0,1 661,829" stroke="black" fill="none"/><path d="M 464 829 A6,6 0 0,1 458,823" stroke="black" fill="none"/><polygon fill="white" points="547,814 576,814 576,823 547,823"/>
<text x="548" y="823" textLength="27" font-family="Helvetica" font-size="12" fill="black">
IDLE
</text>
<line x1="112" y1="829" x2="112" y2="835" stroke="black"/>
<line x1="337" y1="829" x2="337" y2="835" stroke="black"/>
<line x1="562" y1="829" x2="562" y2="835" stroke="black"/>
<line x1="787" y1="829" x2="787" y2="835" stroke="black"/>
</svg>
