<!DOCTYPE svg PUBLIC "-//W3C//DTD SVG 1.1//EN"
 "http://www.w3.org/Graphics/SVG/1.1/DTD/svg11.dtd">
<svg version="1.1"
 width="900px" height="544px"
 viewBox="0 0 900 544"
 xmlns="http://www.w3.org/2000/svg" shape-rendering="crispEdges"
 stroke-width="1" text-rendering="geometricPrecision">
<polygon fill="white" points="132,7 166,7 166,16 132,16"/>
<text x="150" y="16" textLength="33" font-family="Helvetica" font-size="12" fill="black" text-anchor="middle">

Model
</text>
<polygon fill="white" points="387,7 511,7 511,16 387,16"/>
<text x="450" y="16" textLength="123" font-family="Helvetica" font-size="12" fill="black" text-anchor="middle">

Access reliable module
</text>
<polygon fill="white" points="694,7 804,7 804,16 694,16"/>
<text x="750" y="16" textLength="108" font-family="Helvetica" font-size="12" fill="black" text-anchor="middle">

Access + Mesh core
</text>
<line x1="150" y1="22" x2="150" y2="39" stroke="black"/>
<line x1="450" y1="22" x2="450" y2="39" stroke="black"/>
<line x1="750" y1="22" x2="750" y2="39" stroke="black"/>
<line x1="150" y1="39" x2="150" y2="67" stroke="black"/>
<line x1="450" y1="39" x2="450" y2="67" stroke="black"/>
<line x1="750" y1="39" x2="750" y2="67" stroke="black"/>
<polygon fill="#FFB000" points="8,39 880,39 880,61 8,61"/>
<polygon fill="#FFB000" points="8,51 892,51 892,61 8,61"/>
<polygon fill="#FFB000" points="880,39 892,51 880,51"/>
<line x1="8" y1="39" x2="880" y2="39" stroke="black"/>
<line x1="8" y1="61" x2="892" y2="61" stroke="black"/>
<line x1="8" y1="39" x2="8" y2="61" stroke="black"/>
<line x1="892" y1="51" x2="892" y2="61" stroke="black"/>
<line x1="880" y1="39" x2="892" y2="51" stroke="black"/>
<line x1="880" y1="39" x2="880" y2="51" stroke="black"/>
<line x1="892" y1="51" x2="880" y2="51" stroke="black"/>
<polygon fill="#FFB000" points="362,46 537,46 537,55 362,55"/>
<text x="363" y="55" textLength="173" font-family="Helvetica" font-size="12" fill="black">
Reliable send to unicast address
</text>
<line x1="150" y1="67" x2="150" y2="84" stroke="black"/>
<line x1="450" y1="67" x2="450" y2="84" stroke="black"/>
<line x1="750" y1="67" x2="750" y2="84" stroke="black"/>
<line x1="150" y1="84" x2="150" y2="112" stroke="black"/>
<line x1="450" y1="84" x2="450" y2="112" stroke="black"/>
<line x1="750" y1="84" x2="750" y2="112" stroke="black"/>
<line x1="150" y1="95" x2="450" y2="95" stroke="black"/>
<polygon fill="black" points="450,95 440,101 440,89"/>
<polygon fill="white" points="168,85 430,85 430,94 168,94"/>
<text x="169" y="94" textLength="260" font-family="Helvetica" font-size="12" fill="black">
access_model_reliable_publish(&amp;reliable_config)
</text>
<line x1="150" y1="112" x2="150" y2="140" stroke="black"/>
<line x1="450" y1="112" x2="450" y2="140" stroke="black"/>
<line x1="750" y1="112" x2="750" y2="140" stroke="black"/>
<line x1="450" y1="123" x2="750" y2="123" stroke="black"/>
<polygon fill="black" points="750,123 740,129 740,117"/>
<polygon fill="white" points="536,113 663,113 663,122 536,122"/>
<text x="537" y="122" textLength="125" font-family="Helvetica" font-size="12" fill="black">
timer_sch_scehdule(...)
</text>
<line x1="150" y1="140" x2="150" y2="168" stroke="black"/>
<line x1="450" y1="140" x2="450" y2="168" stroke="black"/>
<line x1="750" y1="140" x2="750" y2="168" stroke="black"/>
<path d="M 450 145 A150,6 0 0,1 450,157" stroke="black" fill="none"/><line x1="450" y1="157" x2="460" y2="163" stroke="black"/>
<line x1="450" y1="157" x2="460" y2="151" stroke="black"/>
<polygon fill="white" points="370,141 448,141 448,150 370,150"/>
<text x="371" y="150" textLength="76" font-family="Helvetica" font-size="12" fill="black">
add_to_list(...)
</text>
<line x1="150" y1="168" x2="150" y2="196" stroke="black"/>
<line x1="450" y1="168" x2="450" y2="196" stroke="black"/>
<line x1="750" y1="168" x2="750" y2="196" stroke="black"/>
<line x1="450" y1="179" x2="750" y2="179" stroke="black"/>
<polygon fill="black" points="750,179 740,185 740,173"/>
<polygon fill="white" points="527,169 672,169 672,178 527,178"/>
<text x="528" y="178" textLength="143" font-family="Helvetica" font-size="12" fill="black">
nrf_mesh_packet_send(...)
</text>
<line x1="150" y1="196" x2="150" y2="224" stroke="black"/>
<line x1="450" y1="196" x2="450" y2="224" stroke="black"/>
<line x1="750" y1="196" x2="750" y2="224" stroke="black"/>
<line x1="450" y1="207" x2="150" y2="207" stroke="black" stroke-dasharray="2,2"/>
<polygon fill="black" points="150,207 160,213 160,201"/>
<polygon fill="white" points="254,197 345,197 345,206 254,206"/>
<text x="255" y="206" textLength="89" font-family="Helvetica" font-size="12" fill="black">
NRF_SUCCESS
</text>
<line x1="150" y1="224" x2="150" y2="241" stroke="black" stroke-dasharray="2,2"/>
<line x1="450" y1="224" x2="450" y2="241" stroke="black" stroke-dasharray="2,2"/>
<line x1="750" y1="224" x2="750" y2="241" stroke="black" stroke-dasharray="2,2"/>
<line x1="150" y1="241" x2="150" y2="269" stroke="black"/>
<line x1="450" y1="241" x2="450" y2="269" stroke="black"/>
<line x1="750" y1="241" x2="750" y2="269" stroke="black"/>
<line x1="750" y1="252" x2="450" y2="252" stroke="black"/>
<line x1="450" y1="252" x2="460" y2="258" stroke="black"/>
<line x1="450" y1="252" x2="460" y2="246" stroke="black"/>
<polygon fill="white" points="559,242 640,242 640,251 559,251"/>
<text x="560" y="251" textLength="79" font-family="Helvetica" font-size="12" fill="black">
timer_sch_cb()
</text>
<line x1="150" y1="269" x2="150" y2="297" stroke="black"/>
<line x1="450" y1="269" x2="450" y2="297" stroke="black"/>
<line x1="750" y1="269" x2="750" y2="297" stroke="black"/>
<line x1="450" y1="280" x2="750" y2="280" stroke="black"/>
<polygon fill="black" points="750,280 740,286 740,274"/>
<polygon fill="white" points="527,270 672,270 672,279 527,279"/>
<text x="528" y="279" textLength="143" font-family="Helvetica" font-size="12" fill="black">
nrf_mesh_packet_send(...)
</text>
<line x1="150" y1="297" x2="150" y2="325" stroke="black"/>
<line x1="450" y1="297" x2="450" y2="325" stroke="black"/>
<line x1="750" y1="297" x2="750" y2="325" stroke="black"/>
<line x1="450" y1="308" x2="750" y2="308" stroke="black"/>
<polygon fill="black" points="750,308 740,314 740,302"/>
<polygon fill="white" points="531,298 668,298 668,307 531,307"/>
<text x="532" y="307" textLength="135" font-family="Helvetica" font-size="12" fill="black">
timer_sch_reschedule(...)
</text>
<line x1="150" y1="325" x2="150" y2="342" stroke="black" stroke-dasharray="2,2"/>
<line x1="450" y1="325" x2="450" y2="342" stroke="black" stroke-dasharray="2,2"/>
<line x1="750" y1="325" x2="750" y2="342" stroke="black" stroke-dasharray="2,2"/>
<line x1="150" y1="342" x2="150" y2="370" stroke="black"/>
<line x1="450" y1="342" x2="450" y2="370" stroke="black"/>
<line x1="750" y1="342" x2="750" y2="370" stroke="black"/>
<line x1="750" y1="353" x2="450" y2="353" stroke="black"/>
<line x1="450" y1="353" x2="460" y2="359" stroke="black"/>
<line x1="450" y1="353" x2="460" y2="347" stroke="black"/>
<polygon fill="white" points="559,343 640,343 640,352 559,352"/>
<text x="560" y="352" textLength="79" font-family="Helvetica" font-size="12" fill="black">
timer_sch_cb()
</text>
<line x1="150" y1="370" x2="150" y2="398" stroke="black"/>
<line x1="450" y1="370" x2="450" y2="398" stroke="black"/>
<line x1="750" y1="370" x2="750" y2="398" stroke="black"/>
<line x1="450" y1="381" x2="750" y2="381" stroke="black"/>
<polygon fill="black" points="750,381 740,387 740,375"/>
<polygon fill="white" points="527,371 672,371 672,380 527,380"/>
<text x="528" y="380" textLength="143" font-family="Helvetica" font-size="12" fill="black">
nrf_mesh_packet_send(...)
</text>
<line x1="150" y1="398" x2="150" y2="426" stroke="black"/>
<line x1="450" y1="398" x2="450" y2="426" stroke="black"/>
<line x1="750" y1="398" x2="750" y2="426" stroke="black"/>
<line x1="450" y1="409" x2="750" y2="409" stroke="black"/>
<polygon fill="black" points="750,409 740,415 740,403"/>
<polygon fill="white" points="531,399 668,399 668,408 531,408"/>
<text x="532" y="408" textLength="135" font-family="Helvetica" font-size="12" fill="black">
timer_sch_reschedule(...)
</text>
<line x1="150" y1="426" x2="150" y2="443" stroke="black" stroke-dasharray="2,2"/>
<line x1="450" y1="426" x2="450" y2="443" stroke="black" stroke-dasharray="2,2"/>
<line x1="750" y1="426" x2="750" y2="443" stroke="black" stroke-dasharray="2,2"/>
<line x1="150" y1="443" x2="150" y2="460" stroke="black"/>
<line x1="450" y1="443" x2="450" y2="460" stroke="black"/>
<line x1="750" y1="443" x2="750" y2="460" stroke="black"/>
<line x1="75" y1="448" x2="825" y2="448" stroke="black" stroke-dasharray="2,2"/>
<polygon fill="white" points="411,444 488,444 488,453 411,453"/>
<text x="412" y="453" textLength="75" font-family="Helvetica" font-size="12" fill="black">
 Final timeout 
</text>
<line x1="150" y1="460" x2="150" y2="488" stroke="black"/>
<line x1="450" y1="460" x2="450" y2="488" stroke="black"/>
<line x1="750" y1="460" x2="750" y2="488" stroke="black"/>
<line x1="750" y1="471" x2="450" y2="471" stroke="black"/>
<line x1="450" y1="471" x2="460" y2="477" stroke="black"/>
<line x1="450" y1="471" x2="460" y2="465" stroke="black"/>
<polygon fill="white" points="559,461 640,461 640,470 559,470"/>
<text x="560" y="470" textLength="79" font-family="Helvetica" font-size="12" fill="black">
timer_sch_cb()
</text>
<line x1="150" y1="488" x2="150" y2="516" stroke="black"/>
<line x1="450" y1="488" x2="450" y2="516" stroke="black"/>
<line x1="750" y1="488" x2="750" y2="516" stroke="black"/>
<path d="M 450 493 A150,6 0 0,1 450,505" stroke="black" fill="none"/><line x1="450" y1="505" x2="460" y2="511" stroke="black"/>
<line x1="450" y1="505" x2="460" y2="499" stroke="black"/>
<polygon fill="white" points="336,489 448,489 448,498 336,498"/>
<text x="337" y="498" textLength="110" font-family="Helvetica" font-size="12" fill="black">
remove_from_list(...)
</text>
<line x1="150" y1="516" x2="150" y2="544" stroke="black"/>
<line x1="450" y1="516" x2="450" y2="544" stroke="black"/>
<line x1="750" y1="516" x2="750" y2="544" stroke="black"/>
<line x1="450" y1="527" x2="150" y2="527" stroke="black"/>
<line x1="150" y1="527" x2="160" y2="533" stroke="black"/>
<line x1="150" y1="527" x2="160" y2="521" stroke="black"/>
<polygon fill="white" points="265,517 334,517 334,526 265,526"/>
<text x="266" y="526" textLength="67" font-family="Helvetica" font-size="12" fill="black">
timeout_cb()
</text>
<line x1="150" y1="538" x2="150" y2="544" stroke="black"/>
<line x1="450" y1="538" x2="450" y2="544" stroke="black"/>
<line x1="750" y1="538" x2="750" y2="544" stroke="black"/>
</svg>
