<!DOCTYPE svg PUBLIC "-//W3C//DTD SVG 1.1//EN"
 "http://www.w3.org/Graphics/SVG/1.1/DTD/svg11.dtd">
<svg version="1.1"
 width="900px" height="1122px"
 viewBox="0 0 900 1122"
 xmlns="http://www.w3.org/2000/svg" shape-rendering="crispEdges"
 stroke-width="1" text-rendering="geometricPrecision">
<polygon fill="white" points="132,7 166,7 166,16 132,16"/>
<text x="150" y="16" textLength="33" font-family="Helvetica" font-size="12" fill="black" text-anchor="middle">

Model
</text>
<polygon fill="white" points="387,7 511,7 511,16 387,16"/>
<text x="450" y="16" textLength="123" font-family="Helvetica" font-size="12" fill="black" text-anchor="middle">

Access reliable module
</text>
<polygon fill="white" points="694,7 804,7 804,16 694,16"/>
<text x="750" y="16" textLength="108" font-family="Helvetica" font-size="12" fill="black" text-anchor="middle">

Access + Mesh core
</text>
<line x1="150" y1="22" x2="150" y2="39" stroke="black"/>
<line x1="450" y1="22" x2="450" y2="39" stroke="black"/>
<line x1="750" y1="22" x2="750" y2="39" stroke="black"/>
<line x1="150" y1="39" x2="150" y2="67" stroke="black"/>
<line x1="450" y1="39" x2="450" y2="67" stroke="black"/>
<line x1="750" y1="39" x2="750" y2="67" stroke="black"/>
<polygon fill="#FFB000" points="8,39 880,39 880,61 8,61"/>
<polygon fill="#FFB000" points="8,51 892,51 892,61 8,61"/>
<polygon fill="#FFB000" points="880,39 892,51 880,51"/>
<line x1="8" y1="39" x2="880" y2="39" stroke="black"/>
<line x1="8" y1="61" x2="892" y2="61" stroke="black"/>
<line x1="8" y1="39" x2="8" y2="61" stroke="black"/>
<line x1="892" y1="51" x2="892" y2="61" stroke="black"/>
<line x1="880" y1="39" x2="892" y2="51" stroke="black"/>
<line x1="880" y1="39" x2="880" y2="51" stroke="black"/>
<line x1="892" y1="51" x2="880" y2="51" stroke="black"/>
<polygon fill="#FFB000" points="362,46 537,46 537,55 362,55"/>
<text x="363" y="55" textLength="173" font-family="Helvetica" font-size="12" fill="black">
Reliable send to unicast address
</text>
<line x1="150" y1="67" x2="150" y2="84" stroke="black"/>
<line x1="450" y1="67" x2="450" y2="84" stroke="black"/>
<line x1="750" y1="67" x2="750" y2="84" stroke="black"/>
<line x1="150" y1="84" x2="150" y2="112" stroke="black"/>
<line x1="450" y1="84" x2="450" y2="112" stroke="black"/>
<line x1="750" y1="84" x2="750" y2="112" stroke="black"/>
<line x1="150" y1="95" x2="450" y2="95" stroke="black"/>
<polygon fill="black" points="450,95 440,101 440,89"/>
<polygon fill="white" points="168,85 430,85 430,94 168,94"/>
<text x="169" y="94" textLength="260" font-family="Helvetica" font-size="12" fill="black">
access_model_reliable_publish(&amp;reliable_config)
</text>
<line x1="150" y1="112" x2="150" y2="140" stroke="black"/>
<line x1="450" y1="112" x2="450" y2="140" stroke="black"/>
<line x1="750" y1="112" x2="750" y2="140" stroke="black"/>
<line x1="450" y1="123" x2="750" y2="123" stroke="black"/>
<polygon fill="black" points="750,123 740,129 740,117"/>
<polygon fill="white" points="536,113 663,113 663,122 536,122"/>
<text x="537" y="122" textLength="125" font-family="Helvetica" font-size="12" fill="black">
timer_sch_scehdule(...)
</text>
<line x1="150" y1="140" x2="150" y2="168" stroke="black"/>
<line x1="450" y1="140" x2="450" y2="168" stroke="black"/>
<line x1="750" y1="140" x2="750" y2="168" stroke="black"/>
<path d="M 450 145 A150,6 0 0,1 450,157" stroke="black" fill="none"/><line x1="450" y1="157" x2="460" y2="163" stroke="black"/>
<line x1="450" y1="157" x2="460" y2="151" stroke="black"/>
<polygon fill="white" points="370,141 448,141 448,150 370,150"/>
<text x="371" y="150" textLength="76" font-family="Helvetica" font-size="12" fill="black">
add_to_list(...)
</text>
<line x1="150" y1="168" x2="150" y2="196" stroke="black"/>
<line x1="450" y1="168" x2="450" y2="196" stroke="black"/>
<line x1="750" y1="168" x2="750" y2="196" stroke="black"/>
<line x1="450" y1="179" x2="750" y2="179" stroke="black"/>
<polygon fill="black" points="750,179 740,185 740,173"/>
<polygon fill="white" points="527,169 672,169 672,178 527,178"/>
<text x="528" y="178" textLength="143" font-family="Helvetica" font-size="12" fill="black">
nrf_mesh_packet_send(...)
</text>
<line x1="150" y1="196" x2="150" y2="224" stroke="black"/>
<line x1="450" y1="196" x2="450" y2="224" stroke="black"/>
<line x1="750" y1="196" x2="750" y2="224" stroke="black"/>
<line x1="450" y1="207" x2="150" y2="207" stroke="black" stroke-dasharray="2,2"/>
<polygon fill="black" points="150,207 160,213 160,201"/>
<polygon fill="white" points="254,197 345,197 345,206 254,206"/>
<text x="255" y="206" textLength="89" font-family="Helvetica" font-size="12" fill="black">
NRF_SUCCESS
</text>
<line x1="150" y1="224" x2="150" y2="241" stroke="black" stroke-dasharray="2,2"/>
<line x1="450" y1="224" x2="450" y2="241" stroke="black" stroke-dasharray="2,2"/>
<line x1="750" y1="224" x2="750" y2="241" stroke="black" stroke-dasharray="2,2"/>
<line x1="150" y1="241" x2="150" y2="269" stroke="black"/>
<line x1="450" y1="241" x2="450" y2="269" stroke="black"/>
<line x1="750" y1="241" x2="750" y2="269" stroke="black"/>
<line x1="750" y1="252" x2="450" y2="252" stroke="black"/>
<line x1="450" y1="252" x2="460" y2="258" stroke="black"/>
<line x1="450" y1="252" x2="460" y2="246" stroke="black"/>
<polygon fill="white" points="559,242 640,242 640,251 559,251"/>
<text x="560" y="251" textLength="79" font-family="Helvetica" font-size="12" fill="black">
timer_sch_cb()
</text>
<line x1="150" y1="269" x2="150" y2="297" stroke="black"/>
<line x1="450" y1="269" x2="450" y2="297" stroke="black"/>
<line x1="750" y1="269" x2="750" y2="297" stroke="black"/>
<line x1="450" y1="280" x2="750" y2="280" stroke="black"/>
<polygon fill="black" points="750,280 740,286 740,274"/>
<polygon fill="white" points="527,270 672,270 672,279 527,279"/>
<text x="528" y="279" textLength="143" font-family="Helvetica" font-size="12" fill="black">
nrf_mesh_packet_send(...)
</text>
<line x1="150" y1="297" x2="150" y2="325" stroke="black"/>
<line x1="450" y1="297" x2="450" y2="325" stroke="black"/>
<line x1="750" y1="297" x2="750" y2="325" stroke="black"/>
<line x1="450" y1="308" x2="750" y2="308" stroke="black"/>
<polygon fill="black" points="750,308 740,314 740,302"/>
<polygon fill="white" points="531,298 668,298 668,307 531,307"/>
<text x="532" y="307" textLength="135" font-family="Helvetica" font-size="12" fill="black">
timer_sch_reschedule(...)
</text>
<line x1="150" y1="325" x2="150" y2="342" stroke="black" stroke-dasharray="2,2"/>
<line x1="450" y1="325" x2="450" y2="342" stroke="black" stroke-dasharray="2,2"/>
<line x1="750" y1="325" x2="750" y2="342" stroke="black" stroke-dasharray="2,2"/>
<line x1="150" y1="342" x2="150" y2="370" stroke="black"/>
<line x1="450" y1="342" x2="450" y2="370" stroke="black"/>
<line x1="750" y1="342" x2="750" y2="370" stroke="black"/>
<line x1="750" y1="353" x2="450" y2="353" stroke="black"/>
<line x1="450" y1="353" x2="460" y2="359" stroke="black"/>
<line x1="450" y1="353" x2="460" y2="347" stroke="black"/>
<polygon fill="white" points="535,343 664,343 664,352 535,352"/>
<text x="536" y="352" textLength="127" font-family="Helvetica" font-size="12" fill="black">
access_reliable_rx_cb()
</text>
<line x1="150" y1="370" x2="150" y2="398" stroke="black"/>
<line x1="450" y1="370" x2="450" y2="398" stroke="black"/>
<line x1="750" y1="370" x2="750" y2="398" stroke="black"/>
<line x1="450" y1="381" x2="150" y2="381" stroke="black"/>
<line x1="150" y1="381" x2="160" y2="387" stroke="black"/>
<line x1="150" y1="381" x2="160" y2="375" stroke="black"/>
<polygon fill="white" points="265,371 334,371 334,380 265,380"/>
<text x="266" y="380" textLength="67" font-family="Helvetica" font-size="12" fill="black">
opcode_cb()
</text>
<line x1="150" y1="398" x2="150" y2="426" stroke="black"/>
<line x1="450" y1="398" x2="450" y2="426" stroke="black"/>
<line x1="750" y1="398" x2="750" y2="426" stroke="black"/>
<path d="M 450 403 A150,6 0 0,1 450,415" stroke="black" fill="none"/><line x1="450" y1="415" x2="460" y2="421" stroke="black"/>
<line x1="450" y1="415" x2="460" y2="409" stroke="black"/>
<polygon fill="white" points="336,399 448,399 448,408 336,408"/>
<text x="337" y="408" textLength="110" font-family="Helvetica" font-size="12" fill="black">
remove_from_list(...)
</text>
<line x1="150" y1="426" x2="150" y2="454" stroke="black"/>
<line x1="450" y1="426" x2="450" y2="454" stroke="black"/>
<line x1="750" y1="426" x2="750" y2="454" stroke="black"/>
<line x1="450" y1="437" x2="150" y2="437" stroke="black"/>
<line x1="150" y1="437" x2="160" y2="443" stroke="black"/>
<line x1="150" y1="437" x2="160" y2="431" stroke="black"/>
<polygon fill="white" points="263,427 336,427 336,436 263,436"/>
<text x="264" y="436" textLength="71" font-family="Helvetica" font-size="12" fill="black">
success_cb()
</text>
<line x1="150" y1="454" x2="150" y2="471" stroke="black"/>
<line x1="450" y1="454" x2="450" y2="471" stroke="black"/>
<line x1="750" y1="454" x2="750" y2="471" stroke="black"/>
<line x1="150" y1="471" x2="150" y2="499" stroke="black"/>
<line x1="450" y1="471" x2="450" y2="499" stroke="black"/>
<line x1="750" y1="471" x2="750" y2="499" stroke="black"/>
<polygon fill="#FFB000" points="8,471 880,471 880,493 8,493"/>
<polygon fill="#FFB000" points="8,483 892,483 892,493 8,493"/>
<polygon fill="#FFB000" points="880,471 892,483 880,483"/>
<line x1="8" y1="471" x2="880" y2="471" stroke="black"/>
<line x1="8" y1="493" x2="892" y2="493" stroke="black"/>
<line x1="8" y1="471" x2="8" y2="493" stroke="black"/>
<line x1="892" y1="483" x2="892" y2="493" stroke="black"/>
<line x1="880" y1="471" x2="892" y2="483" stroke="black"/>
<line x1="880" y1="471" x2="880" y2="483" stroke="black"/>
<line x1="892" y1="483" x2="880" y2="483" stroke="black"/>
<polygon fill="#FFB000" points="336,478 563,478 563,487 336,487"/>
<text x="337" y="487" textLength="225" font-family="Helvetica" font-size="12" fill="black">
Reliable send to a group or virtual address
</text>
<line x1="150" y1="499" x2="150" y2="516" stroke="black"/>
<line x1="450" y1="499" x2="450" y2="516" stroke="black"/>
<line x1="750" y1="499" x2="750" y2="516" stroke="black"/>
<line x1="150" y1="516" x2="150" y2="544" stroke="black"/>
<line x1="450" y1="516" x2="450" y2="544" stroke="black"/>
<line x1="750" y1="516" x2="750" y2="544" stroke="black"/>
<line x1="150" y1="527" x2="450" y2="527" stroke="black"/>
<polygon fill="black" points="450,527 440,533 440,521"/>
<polygon fill="white" points="168,517 430,517 430,526 168,526"/>
<text x="169" y="526" textLength="260" font-family="Helvetica" font-size="12" fill="black">
access_model_reliable_publish(&amp;reliable_config)
</text>
<line x1="150" y1="544" x2="150" y2="572" stroke="black"/>
<line x1="450" y1="544" x2="450" y2="572" stroke="black"/>
<line x1="750" y1="544" x2="750" y2="572" stroke="black"/>
<line x1="450" y1="555" x2="750" y2="555" stroke="black"/>
<polygon fill="black" points="750,555 740,561 740,549"/>
<polygon fill="white" points="536,545 663,545 663,554 536,554"/>
<text x="537" y="554" textLength="125" font-family="Helvetica" font-size="12" fill="black">
timer_sch_scehdule(...)
</text>
<line x1="150" y1="572" x2="150" y2="600" stroke="black"/>
<line x1="450" y1="572" x2="450" y2="600" stroke="black"/>
<line x1="750" y1="572" x2="750" y2="600" stroke="black"/>
<path d="M 450 577 A150,6 0 0,1 450,589" stroke="black" fill="none"/><line x1="450" y1="589" x2="460" y2="595" stroke="black"/>
<line x1="450" y1="589" x2="460" y2="583" stroke="black"/>
<polygon fill="white" points="370,573 448,573 448,582 370,582"/>
<text x="371" y="582" textLength="76" font-family="Helvetica" font-size="12" fill="black">
add_to_list(...)
</text>
<line x1="150" y1="600" x2="150" y2="628" stroke="black"/>
<line x1="450" y1="600" x2="450" y2="628" stroke="black"/>
<line x1="750" y1="600" x2="750" y2="628" stroke="black"/>
<line x1="450" y1="611" x2="750" y2="611" stroke="black"/>
<polygon fill="black" points="750,611 740,617 740,605"/>
<polygon fill="white" points="527,601 672,601 672,610 527,610"/>
<text x="528" y="610" textLength="143" font-family="Helvetica" font-size="12" fill="black">
nrf_mesh_packet_send(...)
</text>
<line x1="150" y1="628" x2="150" y2="656" stroke="black"/>
<line x1="450" y1="628" x2="450" y2="656" stroke="black"/>
<line x1="750" y1="628" x2="750" y2="656" stroke="black"/>
<line x1="450" y1="639" x2="150" y2="639" stroke="black" stroke-dasharray="2,2"/>
<polygon fill="black" points="150,639 160,645 160,633"/>
<polygon fill="white" points="254,629 345,629 345,638 254,638"/>
<text x="255" y="638" textLength="89" font-family="Helvetica" font-size="12" fill="black">
NRF_SUCCESS
</text>
<line x1="150" y1="656" x2="150" y2="673" stroke="black" stroke-dasharray="2,2"/>
<line x1="450" y1="656" x2="450" y2="673" stroke="black" stroke-dasharray="2,2"/>
<line x1="750" y1="656" x2="750" y2="673" stroke="black" stroke-dasharray="2,2"/>
<line x1="150" y1="673" x2="150" y2="701" stroke="black"/>
<line x1="450" y1="673" x2="450" y2="701" stroke="black"/>
<line x1="750" y1="673" x2="750" y2="701" stroke="black"/>
<line x1="750" y1="684" x2="450" y2="684" stroke="black"/>
<line x1="450" y1="684" x2="460" y2="690" stroke="black"/>
<line x1="450" y1="684" x2="460" y2="678" stroke="black"/>
<polygon fill="white" points="559,674 640,674 640,683 559,683"/>
<text x="560" y="683" textLength="79" font-family="Helvetica" font-size="12" fill="black">
timer_sch_cb()
</text>
<line x1="150" y1="701" x2="150" y2="729" stroke="black"/>
<line x1="450" y1="701" x2="450" y2="729" stroke="black"/>
<line x1="750" y1="701" x2="750" y2="729" stroke="black"/>
<line x1="450" y1="712" x2="750" y2="712" stroke="black"/>
<polygon fill="black" points="750,712 740,718 740,706"/>
<polygon fill="white" points="527,702 672,702 672,711 527,711"/>
<text x="528" y="711" textLength="143" font-family="Helvetica" font-size="12" fill="black">
nrf_mesh_packet_send(...)
</text>
<line x1="150" y1="729" x2="150" y2="757" stroke="black"/>
<line x1="450" y1="729" x2="450" y2="757" stroke="black"/>
<line x1="750" y1="729" x2="750" y2="757" stroke="black"/>
<line x1="450" y1="740" x2="750" y2="740" stroke="black"/>
<polygon fill="black" points="750,740 740,746 740,734"/>
<polygon fill="white" points="531,730 668,730 668,739 531,739"/>
<text x="532" y="739" textLength="135" font-family="Helvetica" font-size="12" fill="black">
timer_sch_reschedule(...)
</text>
<line x1="150" y1="757" x2="150" y2="774" stroke="black" stroke-dasharray="2,2"/>
<line x1="450" y1="757" x2="450" y2="774" stroke="black" stroke-dasharray="2,2"/>
<line x1="750" y1="757" x2="750" y2="774" stroke="black" stroke-dasharray="2,2"/>
<line x1="150" y1="774" x2="150" y2="802" stroke="black"/>
<line x1="450" y1="774" x2="450" y2="802" stroke="black"/>
<line x1="750" y1="774" x2="750" y2="802" stroke="black"/>
<line x1="750" y1="785" x2="450" y2="785" stroke="black"/>
<line x1="450" y1="785" x2="460" y2="791" stroke="black"/>
<line x1="450" y1="785" x2="460" y2="779" stroke="black"/>
<polygon fill="white" points="535,775 664,775 664,784 535,784"/>
<text x="536" y="784" textLength="127" font-family="Helvetica" font-size="12" fill="black">
access_reliable_rx_cb()
</text>
<line x1="150" y1="802" x2="150" y2="830" stroke="black"/>
<line x1="450" y1="802" x2="450" y2="830" stroke="black"/>
<line x1="750" y1="802" x2="750" y2="830" stroke="black"/>
<line x1="450" y1="813" x2="150" y2="813" stroke="black"/>
<line x1="150" y1="813" x2="160" y2="819" stroke="black"/>
<line x1="150" y1="813" x2="160" y2="807" stroke="black"/>
<polygon fill="white" points="265,803 334,803 334,812 265,812"/>
<text x="266" y="812" textLength="67" font-family="Helvetica" font-size="12" fill="black">
opcode_cb()
</text>
<line x1="150" y1="830" x2="150" y2="847" stroke="black" stroke-dasharray="2,2"/>
<line x1="450" y1="830" x2="450" y2="847" stroke="black" stroke-dasharray="2,2"/>
<line x1="750" y1="830" x2="750" y2="847" stroke="black" stroke-dasharray="2,2"/>
<line x1="150" y1="847" x2="150" y2="875" stroke="black"/>
<line x1="450" y1="847" x2="450" y2="875" stroke="black"/>
<line x1="750" y1="847" x2="750" y2="875" stroke="black"/>
<line x1="750" y1="858" x2="450" y2="858" stroke="black"/>
<line x1="450" y1="858" x2="460" y2="864" stroke="black"/>
<line x1="450" y1="858" x2="460" y2="852" stroke="black"/>
<polygon fill="white" points="559,848 640,848 640,857 559,857"/>
<text x="560" y="857" textLength="79" font-family="Helvetica" font-size="12" fill="black">
timer_sch_cb()
</text>
<line x1="150" y1="875" x2="150" y2="903" stroke="black"/>
<line x1="450" y1="875" x2="450" y2="903" stroke="black"/>
<line x1="750" y1="875" x2="750" y2="903" stroke="black"/>
<line x1="450" y1="886" x2="750" y2="886" stroke="black"/>
<polygon fill="black" points="750,886 740,892 740,880"/>
<polygon fill="white" points="527,876 672,876 672,885 527,885"/>
<text x="528" y="885" textLength="143" font-family="Helvetica" font-size="12" fill="black">
nrf_mesh_packet_send(...)
</text>
<line x1="150" y1="903" x2="150" y2="931" stroke="black"/>
<line x1="450" y1="903" x2="450" y2="931" stroke="black"/>
<line x1="750" y1="903" x2="750" y2="931" stroke="black"/>
<line x1="450" y1="914" x2="750" y2="914" stroke="black"/>
<polygon fill="black" points="750,914 740,920 740,908"/>
<polygon fill="white" points="531,904 668,904 668,913 531,913"/>
<text x="532" y="913" textLength="135" font-family="Helvetica" font-size="12" fill="black">
timer_sch_reschedule(...)
</text>
<line x1="150" y1="931" x2="150" y2="948" stroke="black" stroke-dasharray="2,2"/>
<line x1="450" y1="931" x2="450" y2="948" stroke="black" stroke-dasharray="2,2"/>
<line x1="750" y1="931" x2="750" y2="948" stroke="black" stroke-dasharray="2,2"/>
<line x1="150" y1="948" x2="150" y2="976" stroke="black"/>
<line x1="450" y1="948" x2="450" y2="976" stroke="black"/>
<line x1="750" y1="948" x2="750" y2="976" stroke="black"/>
<line x1="750" y1="959" x2="450" y2="959" stroke="black"/>
<line x1="450" y1="959" x2="460" y2="965" stroke="black"/>
<line x1="450" y1="959" x2="460" y2="953" stroke="black"/>
<polygon fill="white" points="535,949 664,949 664,958 535,958"/>
<text x="536" y="958" textLength="127" font-family="Helvetica" font-size="12" fill="black">
access_reliable_rx_cb()
</text>
<line x1="150" y1="976" x2="150" y2="1004" stroke="black"/>
<line x1="450" y1="976" x2="450" y2="1004" stroke="black"/>
<line x1="750" y1="976" x2="750" y2="1004" stroke="black"/>
<line x1="450" y1="987" x2="150" y2="987" stroke="black"/>
<line x1="150" y1="987" x2="160" y2="993" stroke="black"/>
<line x1="150" y1="987" x2="160" y2="981" stroke="black"/>
<polygon fill="white" points="265,977 334,977 334,986 265,986"/>
<text x="266" y="986" textLength="67" font-family="Helvetica" font-size="12" fill="black">
opcode_cb()
</text>
<line x1="150" y1="1004" x2="150" y2="1021" stroke="black" stroke-dasharray="2,2"/>
<line x1="450" y1="1004" x2="450" y2="1021" stroke="black" stroke-dasharray="2,2"/>
<line x1="750" y1="1004" x2="750" y2="1021" stroke="black" stroke-dasharray="2,2"/>
<line x1="150" y1="1021" x2="150" y2="1038" stroke="black"/>
<line x1="450" y1="1021" x2="450" y2="1038" stroke="black"/>
<line x1="750" y1="1021" x2="750" y2="1038" stroke="black"/>
<line x1="75" y1="1026" x2="825" y2="1026" stroke="black" stroke-dasharray="2,2"/>
<polygon fill="white" points="411,1022 488,1022 488,1031 411,1031"/>
<text x="412" y="1031" textLength="75" font-family="Helvetica" font-size="12" fill="black">
 Final timeout 
</text>
<line x1="150" y1="1038" x2="150" y2="1066" stroke="black"/>
<line x1="450" y1="1038" x2="450" y2="1066" stroke="black"/>
<line x1="750" y1="1038" x2="750" y2="1066" stroke="black"/>
<line x1="750" y1="1049" x2="450" y2="1049" stroke="black"/>
<line x1="450" y1="1049" x2="460" y2="1055" stroke="black"/>
<line x1="450" y1="1049" x2="460" y2="1043" stroke="black"/>
<polygon fill="white" points="559,1039 640,1039 640,1048 559,1048"/>
<text x="560" y="1048" textLength="79" font-family="Helvetica" font-size="12" fill="black">
timer_sch_cb()
</text>
<line x1="150" y1="1066" x2="150" y2="1094" stroke="black"/>
<line x1="450" y1="1066" x2="450" y2="1094" stroke="black"/>
<line x1="750" y1="1066" x2="750" y2="1094" stroke="black"/>
<path d="M 450 1071 A150,6 0 0,1 450,1083" stroke="black" fill="none"/><line x1="450" y1="1083" x2="460" y2="1089" stroke="black"/>
<line x1="450" y1="1083" x2="460" y2="1077" stroke="black"/>
<polygon fill="white" points="336,1067 448,1067 448,1076 336,1076"/>
<text x="337" y="1076" textLength="110" font-family="Helvetica" font-size="12" fill="black">
remove_from_list(...)
</text>
<line x1="150" y1="1094" x2="150" y2="1122" stroke="black"/>
<line x1="450" y1="1094" x2="450" y2="1122" stroke="black"/>
<line x1="750" y1="1094" x2="750" y2="1122" stroke="black"/>
<line x1="450" y1="1105" x2="150" y2="1105" stroke="black"/>
<line x1="150" y1="1105" x2="160" y2="1111" stroke="black"/>
<line x1="150" y1="1105" x2="160" y2="1099" stroke="black"/>
<polygon fill="white" points="265,1095 334,1095 334,1104 265,1104"/>
<text x="266" y="1104" textLength="67" font-family="Helvetica" font-size="12" fill="black">
timeout_cb()
</text>
<line x1="150" y1="1116" x2="150" y2="1122" stroke="black"/>
<line x1="450" y1="1116" x2="450" y2="1122" stroke="black"/>
<line x1="750" y1="1116" x2="750" y2="1122" stroke="black"/>
</svg>
